<?xml version="1.0" encoding="UTF-8" standalone="no"?>
<!-- Created with Inkscape (http://www.inkscape.org/) -->

<svg
   xmlns:dc="http://purl.org/dc/elements/1.1/"
   xmlns:cc="http://creativecommons.org/ns#"
   xmlns:rdf="http://www.w3.org/1999/02/22-rdf-syntax-ns#"
   xmlns:svg="http://www.w3.org/2000/svg"
   xmlns="http://www.w3.org/2000/svg"
   xmlns:sodipodi="http://sodipodi.sourceforge.net/DTD/sodipodi-0.dtd"
   xmlns:inkscape="http://www.inkscape.org/namespaces/inkscape"
   width="20"
   height="20"
   viewBox="0 0 5.2916665 5.2916668"
   version="1.1"
   id="svg8"
   sodipodi:docname="ex-icon.svg"
   inkscape:version="0.92.2 (5c3e80d, 2017-08-06)">
  <defs
     id="defs2" />
  <sodipodi:namedview
     id="base"
     pagecolor="#ffffff"
     bordercolor="#666666"
     borderopacity="1.0"
     inkscape:pageopacity="0.0"
     inkscape:pageshadow="2"
     inkscape:zoom="15.291184"
     inkscape:cx="-14.035368"
     inkscape:cy="6.6946543"
     inkscape:document-units="mm"
     inkscape:current-layer="layer1"
     showgrid="false"
     units="px"
     inkscape:window-width="1920"
     inkscape:window-height="1017"
     inkscape:window-x="-8"
     inkscape:window-y="-8"
     inkscape:window-maximized="1" />
  <metadata
     id="metadata5">
    <rdf:RDF>
      <cc:Work
         rdf:about="">
        <dc:format>image/svg+xml</dc:format>
        <dc:type
           rdf:resource="http://purl.org/dc/dcmitype/StillImage" />
        <dc:title></dc:title>
      </cc:Work>
    </rdf:RDF>
  </metadata>
  <g
     inkscape:label="Vrstva 1"
     inkscape:groupmode="layer"
     id="layer1"
     transform="translate(0,-291.70832)">
    <g
       aria-label="Ex"
       style="font-style:normal;font-variant:normal;font-weight:normal;font-stretch:normal;font-size:5.64444447px;line-height:1.25;font-family:Roboto;-inkscape-font-specification:Roboto;letter-spacing:0px;word-spacing:0px;fill:#6c5d53;fill-opacity:1;stroke:none;stroke-width:0.26458332"
       id="text872">
      <path
         d="M 2.2611884,294.48679 H 0.73948972 v 1.24437 H 2.5071683 v 0.37861 H 0.27646888 v -3.51124 H 2.4830526 v 0.38103 H 0.73948972 v 1.12861 H 2.2611884 Z"
         style="font-size:4.93888903px;fill:#6c5d53;fill-opacity:1;stroke-width:0.26458332"
         id="path874" />
      <path
         d="m 3.888996,294.45303 0.5787761,-0.95257 h 0.5208985 l -0.8536947,1.29018 0.8802219,1.31913 H 4.4991225 L 3.8962307,295.13309 3.293339,296.10977 H 2.7748521 l 0.880222,-1.31913 -0.8536947,-1.29018 h 0.5160753 z"
         style="font-size:4.93888903px;fill:#6c5d53;fill-opacity:1;stroke-width:0.26458332"
         id="path876" />
    </g>
  </g>
</svg>
